Reversible_ALU.sim/sim_1/behav/simulate.log
Vivado Simulator 2017.2
Time resolution is 1 ps
   15 38401    00 0
   15 38401655350 1
   15 38401 38550 2
   15 38401616801 3
   15 38401   151 4
   15 38401 38550 5
   15 38401 38400 6
   15 38401616800 7
   15 38401 38560 8
   15 38401   160 9
   15 3840165521010
   15 3840165535111
   15 3840161710112
   15 38401   14013
   15 3840165520014
   15 38401    0015
   15 38401   30016
   15 3840132775017
   15 38401   30018
   15 38401    7119
$finish called at time : 1 us : File "E:/Xilinx/New_everything/Reversible_ALU/Reversible_ALU.srcs/sources_1/imports/NEWALU/alurev16_bit_tb.v" Line 57
